<svg width="72" height="72" viewBox="0 0 72 72" fill="none" xmlns="http://www.w3.org/2000/svg">
<path d="M52.7999 36.0006C52.7999 45.2646 45.2639 52.8005 36 52.8005C26.7361 52.8005 19.2002 45.2646 19.2002 36.0006C19.2002 26.7367 26.7361 19.2008 36 19.2008C38.7324 19.2008 41.4432 19.8716 43.8384 21.1375L44.9615 19.016C42.2208 17.5676 39.1224 16.8008 36 16.8008C25.4137 16.8008 16.8002 25.4143 16.8002 36.0006C16.8002 46.5869 25.4137 55.2005 36 55.2005C46.5863 55.2005 55.1999 46.5869 55.1999 36.0006C55.1999 31.8067 53.8715 27.8227 51.3587 24.4783L49.4411 25.9207C51.6383 28.8451 52.7999 32.3299 52.7999 36.0006Z" fill="#8AC760"/>
<path d="M49.0533 21.921C48.5661 21.4686 48.0513 21.039 47.5209 20.6418L46.0809 22.5618C46.5441 22.9086 46.9941 23.2866 47.4213 23.6826L49.0533 21.921Z" fill="#8AC760"/>
<path d="M34.8001 27.6005H37.2C39.1848 27.6005 40.8 29.2157 40.8 31.2005H43.2C43.2 27.8921 40.5084 25.2005 37.2 25.2005V22.8005H34.8001V25.2005C31.4917 25.2005 28.8001 27.8921 28.8001 31.2005C28.8001 34.5088 31.4917 37.2004 34.8001 37.2004H37.2C39.1848 37.2004 40.8 38.8156 40.8 40.8004C40.8 42.7852 39.1848 44.4004 37.2 44.4004H34.8001C32.8153 44.4004 31.2001 42.7852 31.2001 40.8004H28.8001C28.8001 44.1088 31.4917 46.8003 34.8001 46.8003V49.2003H37.2V46.8003C40.5084 46.8003 43.2 44.1088 43.2 40.8004C43.2 37.492 40.5084 34.8004 37.2 34.8004H34.8001C32.8153 34.8004 31.2001 33.1853 31.2001 31.2005C31.2001 29.2157 32.8153 27.6005 34.8001 27.6005Z" fill="#8AC760"/>
<path d="M49.1999 34.8005H46.7999V37.2005H49.1999V34.8005Z" fill="#8AC760"/>
<path d="M25.2001 34.8005H22.8001V37.2005H25.2001V34.8005Z" fill="#8AC760"/>
<path d="M66.8482 30.3517L65.1514 32.0484L67.9029 34.8H59.9386C59.6542 29.0893 57.3742 23.9077 53.7707 19.9261L59.407 14.2898V18.1802H61.807V11.393C61.807 10.7294 61.2694 10.193 60.607 10.193H53.8187V12.593H57.7102L52.0739 18.2294C48.0923 14.6246 42.9108 12.3446 37.2 12.0602V4.09707L39.9516 6.84864L41.6484 5.15186L36.8484 0.351897C36.3792 -0.117299 35.6208 -0.117299 35.1516 0.351897L30.3517 5.15186L32.0484 6.84864L34.8 4.09707V12.0614C29.0893 12.3458 23.9077 14.6258 19.9261 18.2306L14.2898 12.5942H18.1814V10.1942H11.393C10.7306 10.1942 10.193 10.7306 10.193 11.3942V18.1814H12.593V14.291L18.2294 19.9273C14.6246 23.9089 12.3458 29.0893 12.0614 34.8012H4.09707L6.84864 32.0496L5.15186 30.3529L0.351897 35.1528C-0.117299 35.622 -0.117299 36.3804 0.351897 36.8496L5.15186 41.6496L6.84864 39.9528L4.09707 37.2H12.0614C12.3458 42.9108 14.6258 48.0923 18.2294 52.0739L12.593 57.7102V53.8199H10.193V60.607C10.193 61.2706 10.7306 61.807 11.393 61.807H18.1814V59.407H14.2898L19.9261 53.7707C23.9077 57.3754 29.0893 59.6554 34.8 59.9398V67.9042L32.0484 65.1526L30.3517 66.8494L35.1516 71.6493C35.3856 71.8821 35.6928 71.9997 36 71.9997C36.3072 71.9997 36.6144 71.8821 36.8484 71.6481L41.6484 66.8482L39.9516 65.1514L37.2 67.9029V59.9386C42.9108 59.6542 48.0923 57.3742 52.0739 53.7695L57.7102 59.4058H53.8187V61.8058H60.607C61.2694 61.8058 61.807 61.2694 61.807 60.6058V53.8199H59.407V57.7102L53.7707 52.0739C57.3754 48.0923 59.6542 42.912 59.9386 37.2H67.9029L65.1514 39.9516L66.8482 41.6484L71.6481 36.8484C72.1173 36.3792 72.1173 35.6208 71.6481 35.1516L66.8482 30.3517ZM36 57.5998C24.0901 57.5998 14.4002 47.9099 14.4002 36C14.4002 24.0901 24.0901 14.4002 36 14.4002C47.9099 14.4002 57.5998 24.0901 57.5998 36C57.5998 47.9099 47.9099 57.5998 36 57.5998Z" fill="#8AC760"/>
</svg>
