<svg width="77" height="77" viewBox="0 0 77 77" fill="none" xmlns="http://www.w3.org/2000/svg">
<path d="M37.2417 12.8375V9.05884H0V76.1501H67.0912V38.9083H63.3126V72.3714H3.77861V12.8375H37.2417Z" fill="#8AC760"/>
<path d="M76.1335 28.1994V0H47.9341V3.77861H69.6983L19.2231 54.2538L21.8962 56.9104L72.3714 6.45169V28.1994H76.1335Z" fill="#8AC760"/>
</svg>
