<svg width="23" height="20" viewBox="0 0 23 20" fill="none" xmlns="http://www.w3.org/2000/svg">
<path fill-rule="evenodd" clip-rule="evenodd" d="M14.5513 2.83522C14.0723 2.83502 13.5993 2.94116 13.1663 3.14598C12.7334 3.35079 12.3513 3.64918 12.0477 4.0196C11.7441 4.39001 11.5265 4.82322 11.4107 5.28795C11.2948 5.75267 11.2836 6.23732 11.3778 6.70691C11.4102 6.86962 11.4036 7.0377 11.3584 7.19734C11.3132 7.35698 11.2308 7.50362 11.1179 7.6252C11.005 7.74679 10.8649 7.83984 10.7091 7.89673C10.5532 7.95361 10.3861 7.97268 10.2214 7.95239C7.9671 7.67547 5.84201 6.7488 4.10512 5.2853C4.13762 5.91643 4.35673 6.58739 4.83165 7.28981L5.54351 8.34239L4.37456 8.84038L4.14915 8.93683C4.3169 9.12868 4.51819 9.32473 4.74359 9.51868C5.04491 9.77659 5.36368 10.0134 5.69762 10.2274L5.70915 10.2347H5.7102L7.33311 11.2192L5.63472 12.0684C5.55085 12.1103 5.46698 12.148 5.38311 12.1816C5.7483 12.485 6.15062 12.7408 6.58036 12.9427L8.03762 13.6315L6.8173 14.6841C6.15157 15.2586 5.48165 15.6874 4.61254 15.9138C5.9455 16.6239 7.43317 16.9937 8.94343 16.9905C13.982 16.9905 18.0392 12.97 18.0392 8.0436V7.49844L18.4848 7.18498C19.1809 6.69643 19.6726 6.03594 20.0249 5.28006H17.7604L17.4752 4.68248C17.2126 4.12963 16.7986 3.6626 16.2812 3.33562C15.7639 3.00865 15.1643 2.83513 14.5523 2.83522H14.5513ZM2.72544 10.4884C2.62651 10.6017 2.55312 10.735 2.51025 10.8792C2.46738 11.0233 2.45603 11.1751 2.47698 11.324C2.59544 12.1638 3.09762 12.8872 3.65327 13.4397C3.80423 13.5896 3.96569 13.7332 4.13553 13.8705L4.0569 13.8915C3.55262 14.0173 2.87222 14.0435 1.73891 13.9334C1.52489 13.9124 1.30959 13.9578 1.1222 14.0633C0.934813 14.1688 0.784398 14.3293 0.691351 14.5232C0.598305 14.7171 0.56713 14.9349 0.602052 15.1471C0.636973 15.3593 0.736303 15.5556 0.886574 15.7094C1.93577 16.7818 3.18914 17.6332 4.57273 18.2134C5.95631 18.7935 7.44209 19.0907 8.94238 19.0873C14.9318 19.0873 19.8446 14.4367 20.1224 8.5678C21.4748 7.43239 22.151 5.89441 22.5158 4.49691C22.5564 4.3418 22.5609 4.17946 22.5288 4.02236C22.4968 3.86526 22.4292 3.7176 22.3312 3.59073C22.2332 3.46386 22.1074 3.36115 21.9635 3.29052C21.8195 3.21988 21.6613 3.1832 21.501 3.18328H19.0342C18.4307 2.24636 17.549 1.52205 16.5127 1.11212C15.4764 0.702196 14.3377 0.62726 13.2566 0.897844C12.1756 1.16843 11.2065 1.77093 10.4855 2.62069C9.76449 3.47045 9.32788 4.52476 9.23698 5.63546C7.30444 5.13239 5.57531 4.04276 4.28754 2.51651C4.1735 2.38167 4.02724 2.27782 3.86233 2.2146C3.69743 2.15139 3.51924 2.13086 3.34428 2.15491C3.16932 2.17896 3.00328 2.24682 2.86155 2.35219C2.71983 2.45756 2.60702 2.59702 2.53359 2.75764C1.89827 4.1436 1.77665 5.74135 2.48536 7.36635L2.24004 7.47118C2.00528 7.57122 1.81506 7.75344 1.70505 7.9837C1.59504 8.21395 1.57279 8.47642 1.64246 8.72191C1.83746 9.40546 2.27569 10.0093 2.7244 10.4884H2.72544Z" fill="#8AC760"/>
</svg>
