<svg width="85" height="74" viewBox="0 0 85 74" fill="none" xmlns="http://www.w3.org/2000/svg">
<path d="M84.6575 54.6014L67.4701 37.414V20.2266C67.4701 17.301 65.0931 14.9241 62.1676 14.9241C59.2421 14.9241 56.8651 17.301 56.8651 20.2266V26.7176L40.6833 10.6272C38.5806 8.52449 35.198 8.52449 33.0952 10.6272C30.9925 12.7299 30.9925 16.1126 33.0952 18.2153L43.7002 28.8203C42.8774 29.0945 42.0546 29.5517 41.4147 30.1916C40.0434 31.5629 39.5862 33.4828 40.0434 35.3113C38.8549 35.4027 37.7578 35.9512 36.8436 36.8654C35.4722 38.2368 35.0151 40.1566 35.4722 41.9851C34.2837 42.0765 33.1867 42.6251 32.2724 43.5393C31.2668 44.5449 30.7183 45.9163 30.7183 47.2876C30.7183 48.6589 31.2668 50.0303 32.2724 51.0359L38.2149 56.9784C42.3289 61.0924 48.2714 62.738 53.9396 61.4581L65.9159 73.4344C66.1902 73.7087 66.5559 73.8001 66.9215 73.8001C67.2872 73.8001 67.6529 73.7087 67.9272 73.4344L84.6575 56.5213C85.1146 55.9727 85.1146 55.1499 84.6575 54.6014ZM66.8301 70.4175L55.3109 58.8982C55.0366 58.624 54.6709 58.5326 54.3053 58.5326C54.2138 58.5326 54.031 58.5326 53.9396 58.624C49.0027 59.9953 43.7002 58.624 40.1348 55.0585L34.1923 49.1161C33.1867 48.1104 33.1867 46.4648 34.1923 45.4592C35.198 44.4535 36.8436 44.4535 37.8492 45.4592C38.3977 46.0077 39.2205 46.0077 39.7691 45.4592C40.0434 45.1849 40.1348 44.8192 40.1348 44.4535C40.1348 44.0878 40.0434 43.7221 39.7691 43.4479L38.7634 42.4422C38.3063 41.9851 38.0321 41.3451 38.0321 40.6138C38.0321 39.8824 38.3063 39.2424 38.7634 38.7853C39.7691 37.7797 41.4147 37.7797 42.4203 38.7853C42.9689 39.3338 43.7917 39.3338 44.3402 38.7853C44.6145 38.511 44.7059 38.1454 44.7059 37.7797C44.7059 37.414 44.6145 37.0483 44.3402 36.774L43.3346 35.7684C42.3289 34.7627 42.3289 33.1171 43.3346 32.1115C44.3402 31.1058 45.9858 31.1058 46.9915 32.1115C47.54 32.66 48.3628 32.66 48.9113 32.1115C49.4599 31.5629 49.4599 30.7401 48.9113 30.1916L35.0151 16.204C34.0095 15.1983 34.0095 13.5527 35.0151 12.5471C36.0208 11.5414 37.6664 11.5414 38.672 12.5471L57.1393 31.0144C57.505 31.3801 58.145 31.5629 58.6021 31.2887C59.1506 31.1058 59.4249 30.5573 59.4249 30.0088V20.2266C59.4249 18.7638 60.6134 17.6667 61.9847 17.6667C63.3561 17.6667 64.5446 18.8552 64.5446 20.2266V37.9625C64.5446 38.3282 64.7274 38.6939 64.9103 38.9682L81.732 55.607L66.8301 70.4175Z" fill="#8AC760"/>
<path d="M37.0261 27.1746C37.7575 27.1746 38.3974 26.5347 38.3974 25.8033C38.3974 25.0719 37.7575 24.432 37.0261 24.432C31.2665 24.432 26.6039 19.7694 26.6039 14.0098C26.6039 8.25019 31.3579 3.58764 37.0261 3.58764C42.6943 3.58764 47.4482 8.25019 47.4482 14.0098C47.4482 14.7412 48.0882 15.3811 48.8196 15.3811C49.551 15.3811 50.1909 14.7412 50.1909 14.0098C50.1909 6.78743 44.2485 0.844971 37.0261 0.844971C30.2608 0.844971 24.6841 6.05605 23.9527 12.6385H7.22237L8.86798 11.8157C9.50793 11.45 9.7822 10.6272 9.50793 9.98721C9.14224 9.34726 8.31944 9.07299 7.67948 9.34726L0.73138 12.7299C0.639957 12.7299 0.548535 12.8213 0.457112 12.9127C0.457112 12.9127 0.457112 12.9127 0.36569 13.0042C0.274267 13.0956 0.182845 13.187 0.182845 13.2784C0.182845 13.2784 0.182845 13.2784 0.182845 13.3698C0.0914225 13.4613 0.0914223 13.5527 0.0914223 13.6441V13.7355C0.0914223 13.827 0 13.9184 0 14.1012C0 14.2841 -8.85495e-08 14.3755 0.0914223 14.4669V14.5583C0.0914223 14.6498 0.182845 14.7412 0.182845 14.8326C0.182845 14.8326 0.182845 14.8326 0.182845 14.924C0.274267 15.0154 0.274267 15.1069 0.36569 15.1983C0.36569 15.1983 0.36569 15.1983 0.457112 15.2897C0.548535 15.3811 0.639957 15.3811 0.73138 15.4726L7.67948 18.8552C7.86233 18.9466 8.04517 19.038 8.31944 19.038C8.86798 19.038 9.32509 18.7638 9.50793 18.3067C9.87362 17.6667 9.59935 16.8439 8.86798 16.4782L7.22237 15.3811H23.9527C24.6841 21.9636 30.2608 27.1746 37.0261 27.1746Z" fill="#8AC760"/>
</svg>
