<svg width="151" height="21" viewBox="0 0 151 21" fill="none" xmlns="http://www.w3.org/2000/svg">
<g clip-path="url(#clip0)">
<path d="M2.04227 9.6527L0.763516 10.9512L0 10.1761V2.05954L2.04227 4.13041V9.6527ZM2.04227 18.5444L0 20.6152V12.5242L0.760846 11.7236L2.0396 13.0221V18.5444H2.04227ZM11.0203 1.70026L9.00735 3.77112H2.39466L0.381758 1.70026H11.0203ZM11.0203 21H0.381758L2.39466 18.9291H9.00735L11.0203 21ZM11.402 10.1761L10.6572 10.9484L9.35974 9.64987V4.13041L11.402 2.05954V10.1761ZM11.402 20.6152L9.35974 18.5444V13.0221L10.6572 11.7236L11.402 12.5242V20.6152Z" fill="#ADADAD"/>
<path d="M15.2009 9.6527L13.9221 10.9512L13.1613 10.1789V2.05954L15.2036 4.13041V9.6527H15.2009ZM15.2009 18.5444L13.1586 20.6152V12.5242L13.9195 11.7236L15.1982 13.0221V18.5444H15.2009ZM24.1816 1.70026L22.1687 3.77112H15.556L13.5431 1.70026H24.1816ZM24.1816 21H13.5404L15.5533 18.9291H22.166L24.1816 21ZM24.5633 10.1761L23.8185 10.9484L22.521 9.64987V4.13041L24.5633 2.05954V10.1761ZM24.5633 20.6152L22.521 18.5444V13.0221L23.8185 11.7236L24.5633 12.5242V20.6152Z" fill="#ADADAD"/>
<path d="M46.1714 10.7787C46.1714 16.516 42.821 19.9419 38.4294 20.4993C37.4684 20.6096 37.0306 20.6096 36.0134 20.6096H30.0014V1.39189H36.1229C37.1373 1.39189 37.5778 1.39189 38.5389 1.50222C42.9305 2.03408 46.1714 4.95932 46.1714 10.7787ZM42.9305 10.7787C42.9305 6.73879 41.035 4.39917 38.0157 3.95501C37.4123 3.84467 36.7529 3.81638 35.8479 3.81638H33.0208V18.1596H35.7385C36.6728 18.1596 37.3029 18.1596 37.9062 18.0493C40.9549 17.6023 42.9305 15.042 42.9305 10.7787Z" fill="#8BC860"/>
<path d="M60.6916 14.066H50.2319C50.4802 17.6023 52.0713 18.7735 54.0468 18.7735C55.8035 18.7735 57.1756 17.6872 57.4773 15.82H60.5234C59.8907 19.3309 57.1196 21 53.9347 21C50.037 21 47.1004 18.4935 47.1004 13.2569C47.1004 8.57767 50.037 5.42894 54.2364 5.42894C58.4624 5.42894 60.7423 8.65971 60.7423 12.8382C60.745 13.1183 60.745 13.537 60.6916 14.066ZM50.2613 11.9216H57.6455C57.4266 9.19157 56.2466 7.66106 54.1323 7.66106C52.0713 7.66106 50.5897 9.08124 50.2613 11.9216Z" fill="#8BC860"/>
<path d="M78.3138 20.6124H74.854L71.9708 8.66254L69.0609 20.6124H65.5743L60.9345 5.82217H64.3383L67.3309 17.8824L70.1581 5.85046H73.8368L76.7467 17.9107L79.7394 5.82217H82.951L78.3138 20.6124Z" fill="#8BC860"/>
<path d="M94.345 10.0544H91.2696C90.9679 8.49562 90.0629 7.57618 88.5786 7.57618C87.1503 7.57618 86.4643 8.38528 86.4643 9.4971C86.4643 10.8352 87.5348 11.3897 89.7025 11.9753C92.8874 12.8099 94.5613 14.0915 94.5613 16.7112C94.5613 19.5798 92.0625 21 88.8803 21C85.642 21 83.2527 19.5232 82.8416 16.1821H85.8876C86.2453 18.0748 87.4787 18.8273 88.9897 18.8273C90.3886 18.8273 91.5152 18.2134 91.5152 16.9347C91.5152 15.6559 90.5274 14.9572 88.0554 14.2895C85.3937 13.5936 83.4155 12.4506 83.4155 9.86204C83.4155 7.10373 85.5566 5.43459 88.7948 5.43459C92.1479 5.43176 94.014 7.35268 94.345 10.0544Z" fill="#8BC860"/>
<path d="M104.5 3.3411V20.6096H102.14V3.3411H95.3861V1.39189H111.252V3.3411H104.5Z" fill="#8BC860"/>
<path d="M122.646 13.9557H112.106C112.325 17.8541 114.138 19.1639 116.279 19.1639C118.171 19.1639 119.709 17.9673 120.04 15.8483H122.51C121.933 19.4129 119.159 21 116.169 21C112.381 21 109.554 18.4935 109.554 13.2852C109.554 8.49562 112.49 5.46005 116.471 5.46005C120.478 5.46005 122.702 8.49562 122.702 12.8127C122.699 13.0362 122.699 13.4266 122.646 13.9557ZM112.13 12.1168H120.31C120.091 9.05294 118.799 7.29893 116.412 7.29893C114.108 7.29893 112.405 8.96807 112.13 12.1168Z" fill="#8BC860"/>
<path d="M136.782 10.8069H134.312C133.792 8.43904 132.529 7.29893 130.58 7.29893C128.303 7.29893 126.381 9.10952 126.381 13.0928C126.381 17.3816 128.247 19.1639 130.417 19.1639C132.339 19.1639 133.685 18.0493 134.179 15.9049H136.648C135.935 19.3309 133.519 21.0028 130.278 21.0028C126.6 21.0028 123.799 18.6632 123.799 13.2597C123.799 8.27495 126.984 5.46005 130.633 5.46005C134.12 5.46005 136.341 7.57618 136.782 10.8069Z" fill="#8BC860"/>
<path d="M151 12.312V20.6124H148.64V12.4789C148.64 11.7264 148.64 11.1153 148.584 10.3628C148.448 8.63707 147.513 7.29894 145.263 7.35552C142.986 7.4121 141.064 9.08123 141.064 14.1226V20.6124H138.704V0H141.064V8.38529L141.969 6.68503C143.205 5.70901 144.275 5.46006 145.757 5.46006C148.942 5.46006 150.725 7.18577 150.944 9.77718C151 10.5297 151 11.1125 151 12.312Z" fill="#8BC860"/>
</g>
<defs>
<clipPath id="clip0">
<rect width="151" height="21" fill="white"/>
</clipPath>
</defs>
</svg>
